<svg xmlns="http://www.w3.org/2000/svg" viewBox="0 0 135.5 135.5">
  <g transform="translate(0 -161.5)">
    <circle cx="67.7" cy="229.3" r="59.5" fill="#872651" image-rendering="optimizeQuality"/>
    <path fill="#fff" d="M31.1 270.2a34.2 34.2 0 0 1-4-3.8c-.7-1-1-2.1-1-3.4v-1L37 244.5c11.4-18.4 12.7-20.4 15.2-23.1 3.2-3.5 4.9-4.8 10.6-8.6a59.8 59.8 0 0 0 19.8-19.3 48.4 48.4 0 0 0 7-11.6c.8-1.3 1-1.6 1.8-2.1 1.6-1.2 2.3-1 6 1.5 3.9 2.6 4.3 3.1 4 5.4a19.8 19.8 0 0 1-3 4.9c-1.5 1.3-8.4 14-10 18a68 68 0 0 0-4.3 17.6 50 50 0 0 1-3.4 14.1 175 175 0 0 1-13.6 23.2 145.5 145.5 0 0 1-11.4 17.8c-1.9 1.3-3.4 1.1-7.1-.7-2-1-15.4-9.8-17.5-11.5z"/>
    <path fill="#fff" d="M0 204.8h135.5v48.9H0z"/>
    <path fill="#872651" d="M0 208.9h135.5v40.7H0z"/>
    <g fill="#fff" aria-label="ALCOOL" font-family="Quicksand" font-size="119.3" font-weight="500" letter-spacing="2.5" style="line-height:1.25" text-anchor="middle" word-spacing="0">
      <path d="M24.4 238.5v.6q0 .6-.4 1-.4.5-1 .5-.4 0-.8-.3l-.6-.8-2-4.7H10l-2 4.8q0 .4-.5.7-.3.3-.7.3-.7 0-1-.4-.4-.4-.4-1v-.5l8.1-19.7q.2-.5.6-.8.4-.3 1-.2l.8.2q.4.3.5.8zM11 231.9h7.4l-3.7-9zM40.5 237.5q.7 0 1.1.4.5.4.5 1 0 .7-.5 1.1-.4.5-1 .5H29.7q-.6 0-1-.5-.5-.4-.5-1v-19.4q0-.6.5-1 .4-.5 1.1-.5.6 0 1 .4.6.5.6 1.1v17.9zM61.9 219.4q.7.4.7 1.3 0 .5-.3 1-.4.5-1 .5l-1-.2q-1.9-1.1-4.2-1.1-2.4 0-4.2 1-1.8 1.1-2.8 3-1 1.9-1 4.4 0 2.6 1 4.5 1 2 3 3 1.7 1 4 1 2.4 0 4.3-1.2.3-.2.8-.2.7 0 1 .6.5.5.5 1 0 .4-.3.7-.1.3-.5.5-1.2.7-2.8 1.2-1.5.4-3 .4-3 0-5.6-1.4-2.6-1.4-4.2-4-1.5-2.6-1.5-6.1 0-3.3 1.5-5.9 1.5-2.6 4-4 2.6-1.5 5.8-1.5 3 0 5.8 1.5zM87 229.3q0 3.2-1.3 5.8-1.4 2.6-3.8 4.2-2.5 1.5-5.5 1.5t-5.5-1.5q-2.5-1.6-3.9-4.2-1.3-2.6-1.3-5.8 0-3.3 1.3-5.9 1.4-2.6 3.9-4.1 2.4-1.5 5.5-1.5 3 0 5.5 1.5 2.4 1.5 3.8 4.1 1.4 2.6 1.4 5.9zm-3.2 0q0-2.4-1-4.3-.9-2-2.6-3-1.7-1.2-3.8-1.2-2.2 0-3.9 1-1.7 1.2-2.6 3.1-1 2-1 4.4 0 2.4 1 4.3 1 2 2.6 3 1.7 1.1 3.9 1.1 2.1 0 3.8-1 1.7-1.2 2.7-3 1-2 1-4.4zM111.8 229.3q0 3.2-1.4 5.8-1.3 2.6-3.8 4.2-2.4 1.5-5.5 1.5-3 0-5.5-1.5-2.4-1.6-3.8-4.2t-1.4-5.8q0-3.3 1.4-5.9 1.4-2.6 3.8-4.1 2.5-1.5 5.5-1.5t5.5 1.5q2.5 1.5 3.8 4.1 1.4 2.6 1.4 5.9zm-3.2 0q0-2.4-1-4.3-1-2-2.6-3-1.7-1.2-3.9-1.2-2.1 0-3.8 1-1.7 1.2-2.7 3.1-1 2-1 4.4 0 2.4 1 4.3 1 2 2.7 3 1.7 1.1 3.8 1.1 2.2 0 3.9-1 1.7-1.2 2.6-3 1-2 1-4.4zM128.7 237.5q.6 0 1 .4.5.4.5 1 0 .7-.5 1.1-.4.5-1 .5H118q-.7 0-1.1-.5-.5-.4-.5-1v-19.4q0-.6.5-1 .4-.5 1.1-.5.7 0 1.1.4.5.5.5 1.1v17.9z" style="-inkscape-font-specification:'Quicksand Medium';text-align:center"/>
    </g>
  </g>
</svg>
